3/10/2021 10:37:57 AM An error occurred Exception Message : Could not load file or assembly 'EPPlus, Version=5.5.0.0, Culture=neutral, PublicKeyToken=ea159fdaa78159a1' or one of its dependencies. The module was expected to contain an assembly manifest. with stack trace :    at EPPlusJob.Actions.DatasetToExcelWithFormattingAndRowStart.GenerateExcel(DataTable Coll)
   at EPPlusJob.Actions.DatasetToExcelWithFormattingAndRowStart.Run() in C:\Users\esc\source\repos\EPPlusJob\EPPlusJob\Actions\DatasetToExcelWithFormattingAndRowStart.cs:line 30
   at EPPlusJob.Program.Main(String[] args) in C:\Users\esc\source\repos\EPPlusJob\EPPlusJob\Program.cs:line 21 and Inner Message : 
3/14/2021 10:11:28 AM An error occurred Exception Message : Row out of range with stack trace :    at OfficeOpenXml.ExcelRange.ValidateRowCol(Int32 Row, Int32 Col)
   at OfficeOpenXml.ExcelRange.get_Item(Int32 Row, Int32 Col)
   at EPPlusJob.Actions.DatasetToExcelWithFormattingAndRowStart.GenerateExcel(DataTable Coll) in C:\Users\esc\source\repos\EPPlusJob\EPPlusJob\Actions\DatasetToExcelWithFormattingAndRowStart.cs:line 92
   at EPPlusJob.Actions.DatasetToExcelWithFormattingAndRowStart.Run() in C:\Users\esc\source\repos\EPPlusJob\EPPlusJob\Actions\DatasetToExcelWithFormattingAndRowStart.cs:line 30
   at EPPlusJob.Program.Main(String[] args) in C:\Users\esc\source\repos\EPPlusJob\EPPlusJob\Program.cs:line 21 and Inner Message : 
3/15/2021 7:19:31 AM An error occurred Exception Message : Row out of range with stack trace :    at OfficeOpenXml.ExcelRange.ValidateRowCol(Int32 Row, Int32 Col)
   at OfficeOpenXml.ExcelRange.get_Item(Int32 Row, Int32 Col)
   at EPPlusJob.Actions.DatasetToExcelWithFormattingAndRowStart.GenerateExcel(DataTable Coll) in C:\Users\esc\source\repos\EPPlusJob\EPPlusJob\Actions\DatasetToExcelWithFormattingAndRowStart.cs:line 92
   at EPPlusJob.Actions.DatasetToExcelWithFormattingAndRowStart.Run() in C:\Users\esc\source\repos\EPPlusJob\EPPlusJob\Actions\DatasetToExcelWithFormattingAndRowStart.cs:line 30
   at EPPlusJob.Program.Main(String[] args) in C:\Users\esc\source\repos\EPPlusJob\EPPlusJob\Program.cs:line 21 and Inner Message : 
3/16/2021 7:22:42 AM An error occurred Exception Message : Row out of range with stack trace :    at OfficeOpenXml.ExcelRange.ValidateRowCol(Int32 Row, Int32 Col)
   at OfficeOpenXml.ExcelRange.get_Item(Int32 Row, Int32 Col)
   at EPPlusJob.Actions.DatasetToExcelWithFormattingAndRowStart.GenerateExcel(DataTable Coll) in C:\Users\esc\source\repos\EPPlusJob\EPPlusJob\Actions\DatasetToExcelWithFormattingAndRowStart.cs:line 92
   at EPPlusJob.Actions.DatasetToExcelWithFormattingAndRowStart.Run() in C:\Users\esc\source\repos\EPPlusJob\EPPlusJob\Actions\DatasetToExcelWithFormattingAndRowStart.cs:line 30
   at EPPlusJob.Program.Main(String[] args) in C:\Users\esc\source\repos\EPPlusJob\EPPlusJob\Program.cs:line 21 and Inner Message : 
3/17/2021 7:21:43 AM An error occurred Exception Message : Row out of range with stack trace :    at OfficeOpenXml.ExcelRange.ValidateRowCol(Int32 Row, Int32 Col)
   at OfficeOpenXml.ExcelRange.get_Item(Int32 Row, Int32 Col)
   at EPPlusJob.Actions.DatasetToExcelWithFormattingAndRowStart.GenerateExcel(DataTable Coll) in C:\Users\esc\source\repos\EPPlusJob\EPPlusJob\Actions\DatasetToExcelWithFormattingAndRowStart.cs:line 92
   at EPPlusJob.Actions.DatasetToExcelWithFormattingAndRowStart.Run() in C:\Users\esc\source\repos\EPPlusJob\EPPlusJob\Actions\DatasetToExcelWithFormattingAndRowStart.cs:line 30
   at EPPlusJob.Program.Main(String[] args) in C:\Users\esc\source\repos\EPPlusJob\EPPlusJob\Program.cs:line 21 and Inner Message : 
3/17/2021 3:09:24 PM An error occurred Exception Message : Row out of range with stack trace :    at OfficeOpenXml.ExcelRange.ValidateRowCol(Int32 Row, Int32 Col)
   at OfficeOpenXml.ExcelRange.get_Item(Int32 Row, Int32 Col)
   at EPPlusJob.Actions.DatasetToExcelWithFormattingAndRowStart.GenerateExcel(DataTable Coll) in C:\Users\esc\source\repos\EPPlusJob\EPPlusJob\Actions\DatasetToExcelWithFormattingAndRowStart.cs:line 92
   at EPPlusJob.Actions.DatasetToExcelWithFormattingAndRowStart.Run() in C:\Users\esc\source\repos\EPPlusJob\EPPlusJob\Actions\DatasetToExcelWithFormattingAndRowStart.cs:line 30
   at EPPlusJob.Program.Main(String[] args) in C:\Users\esc\source\repos\EPPlusJob\EPPlusJob\Program.cs:line 21 and Inner Message : 
